Graded by Tam Dang (dangt7@cs)
-------------------------------------------------------------------------------

Main test suite:   16 / 16 passed
Hidden test suite: 41 / 45 passed

Extra credit: 0pts

Score: 93 / 100

Good job!

